…
  parks<- fromJSON(searchURL)
  
  return(as_tibble(parks$data))
}

Testing
getParksInfo() Function with Different Modifications

Using getParksInfo() with the default values for
state, limit, and
searchTerm.

getParksInfo()

## # A tibble: 30 × 23
##    id          url   fullN…¹ parkC…² descr…³
##    <chr>       <chr> <chr>   <chr>   <chr>  
##  1 77E0D7F0-1… http… Abraha… abli    "For o…
##  2 6DA17C86-0… http… Acadia… acad    "Acadi…
##  3 E4C7784E-6… http… Adams … adam    "From …
##  4 1A47416F-D… http… Africa… afam    "Over …
##  5 E6E1D22A-7… http… Africa… afbg    "Afric…
##  6 64B9F127-3… http… Agate … agfo    "In th…
##  7 3B8307B3-5… http… Ala Ka… alka    "Estab…
##  8 C4E1A9A4-D… http… Alagna… alag    "The h…
##  9 7D6098F9-3… http… Alaska… anch    "Alask…
## 10 C08AD828-9… http… Alcatr… alca    "Alcat…
## # … with 20 more rows, 18 more variables:
## #   latitude <chr>, longitude <chr>,
## #   latLong <chr>, activities <list>,
## #   topics <list>, states <chr>,
## #   contacts <df[,2]>, entranceFees <list>,
## #   entrancePasses <list>, fees <list>,
## #   directionsInfo <chr>, …
…
Using getParksInfo() entering
"california" for the state value,
100 for the limit, and using the default value
for the searchTerm.

getParksInfo(state = "california", limit = 100)

## # A tibble: 33 × 23
##    id          url   fullN…¹ parkC…² descr…³
##    <chr>       <chr> <chr>   <chr>   <chr>  
##  1 C08AD828-9… http… Alcatr… alca    Alcatr…
##  2 2DB09FB7-0… http… Cabril… cabr    Climbi…
##  3 B39C368F-C… http… Califo… cali    Follow…
##  4 872417E6-2… http… Castle… camo    Castle…
##  5 5595FC7A-F… http… Channe… chis    Channe…
##  6 D1EAA1D1-E… http… César … cech    Yes, w…
##  7 FFC9F9C4-D… http… Death … deva    In thi…
##  8 2DC9444C-8… http… Devils… depo    Establ…
##  9 353241CC-4… http… Eugene… euon    Americ…
## 10 7FF57085-3… http… Fort P… fopo    From i…
## # … with 23 more rows, 18 more variables:
## #   latitude <chr>, longitude <chr>,
## #   latLong <chr>, activities <list>,
## #   topics <list>, states <chr>,
## #   contacts <df[,2]>, entranceFees <list>,
## #   entrancePasses <list>, fees <list>,
## #   directionsInfo <chr>, …
…
  return(as_tibble(thingsToDo$data))
}

Let’s see an example of what data will look like when returned from
the thingstodo endpoint with a couple of modifications
using our function. The modifications here will return up to 200 results
that match our searchTerm "kids". Because we
did not enter a state and instead relied on the default
state value, we will be returning data from all states. The
searchTerm = "kids" will return 141 results
from our API, we can see the first 6 that are returned below.

getThingsToDo(limit = 200, searchTerm = "kids")

## # A tibble: 142 × 35
##    id     url   title short…¹ images relat…²
##    <chr>  <chr> <chr> <chr>   <list> <list> 
##  1 BF4CD… http… Plac… You co… <df>   <df>   
##  2 9DB7D… http… Hike… The tr… <df>   <df>   
##  3 0585F… http… Kid-… Lookin… <df>   <df>   
##  4 4053A… http… Fami… Whethe… <df>   <df>   
##  5 09749… http… Hike… Sarato… <df>   <df>   
##  6 C3241… http… Earn… Becomi… <df>   <df>   
##  7 93643… http… Beco… Come t… <df>   <df>   
##  8 C3157… http… Beco… Did yo… <df>   <df>   
##  9 95B1D… http… Ride… Steamt… <df>   <df>   
## 10 5DC9C… http… Hike… Stroll… <df>   <df>   
## # … with 132 more rows, 29 more variables:
## #   relatedOrganizations <list>,
## #   tags <list>, latitude <chr>,
## #   longitude <chr>, geometryPoiId <chr>,
## #   amenities <list>, location <chr>,
## #   seasonDescription <chr>,
## #   accessibilityInformation <chr>, …
…
Before we move on to the next step, let’s take a look at what our
data looks like when returned using thegetCampgrounds()
function:

Using defaults

When a user specifies a state and number of results to return

When a user specifies a searchTerm

getCampgrounds() using defaults

getCampgrounds()

## # A tibble: 40 × 31
##    id    url   name  parkC…¹ descr…² latit…³
##    <chr> <chr> <chr> <chr>   <chr>   <chr>  
##  1 EA81… "htt… 277 … amis    17 sit… "29.51…
##  2 1241… ""    Abra… grsm    Abrams… "35.61…
##  3 ABDC… "htt… Adir… cato    Reserv… "39.67…
##  4 4F9E… "htt… Afte… bica    - Near… "45.31…
##  5 9FAE… "htt… Aker… ozar    Group … "37.37…
##  6 6EAB… "htt… Alam… orpi    Primit… "32.07…
##  7 AB15… "htt… Alle… ozar    Campgr… "37.14…
##  8 4F9E… "htt… Alum… biso    Alum F… "36.76…
##  9 B0B2… ""    Amer… amme    There … ""     
## 10 E7CC… "htt… Anac… chis    Primit… "34.01…
## # … with 30 more rows, 25 more variables:
## #   longitude <chr>, latLong <chr>,
## #   audioDescription <chr>,
## #   isPassportStampLocation <chr>,
## #   passportStampLocationDescription <chr>,
## #   passportStampImages <list>,
## #   geometryPoiId <chr>, …
…
getCleanCampground<- function(state=NULL, limit=50, searchTerm=NULL){
  campgroundData<- getCampgrounds(state, limit, searchTerm)
  cleanCampData<- cleaningData(campgroundData)
  
  return(cleanCampData)
}

Let’s test this out to make sure things are working as expected. Here
we are specifying the state as California and that we want to limit the
results to 100. Everything looks good, so we are ready to move on to
working with the data from our API!

getCleanCampground("CA", limit = 100)

## # A tibble: 91 × 40
##    id    url   name  parkC…¹ descr…² latit…³
##    <chr> <chr> <chr> <chr>   <chr>   <chr>  
##  1 E7CC… "htt… Anac… chis    Primit… 34.014…
##  2 BC70… "htt… Atwe… seki    The ca… 36.464…
##  3 D82D… "htt… Azal… seki    Azalea… 36.741…
##  4 07E7… "htt… Bell… jotr    This s… 34.001…
##  5 2AFC… "htt… Bice… goga    Bicent… 37.824…
##  6 BF42… ""    Blac… moja    While … 35.048…
##  7 33AA… "htt… Blac… jotr    This l… 34.072…
##  8 3EC4… "htt… Bran… whis    This t… 40.617…
##  9 5204… "htt… Bran… whis    A secl… 40.617…
## 10 58B9… "htt… Brid… yose    The Br… 37.663…
## # … with 81 more rows, 34 more variables:
## #   longitude <chr>, latLong <chr>,
## #   audioDescription <chr>,
## #   isPassportStampLocation <chr>,
## #   passportStampLocationDescription <chr>,
## #   passportStampImages <list>,
## #   geometryPoiId <chr>, …
…
