…
Before we move on to the next step, let’s take a look at what this data
looks like when returned using the `getCampgrounds()` function using
defaults and when a user specifies a state and number of results to
return.

**`getCampgrounds()` using defaults**

``` r
defaultSettings<-getCampgrounds()

defaultSettings
```

    ## # A tibble: 40 × 31
    ##    id     url   name  parkC…¹ descr…² latit…³ longi…⁴ latLong audio…⁵ isPas…⁶ passp…⁷ passp…⁸
    ##    <chr>  <chr> <chr> <chr>   <chr>   <chr>   <chr>   <chr>   <chr>   <chr>   <chr>   <list> 
    ##  1 EA81B… "htt… 277 … amis    17 sit… "29.51… "-100.… "{lat:… "17 si… 0       ""      <list> 
    ##  2 1241C… ""    Abra… grsm    Abrams… "35.61… "-83.9… "{lat:… "Mount… 0       ""      <list> 
    ##  3 ABDC6… "htt… Adir… cato    Reserv… "39.67… "-77.4… "{lat:… "The A… 0       ""      <list> 
    ##  4 4F9ED… "htt… Afte… bica    - Near… "45.31… "-107.… "{lat:… ""      0       ""      <list> 
    ##  5 9FAE9… "htt… Aker… ozar    Group … "37.37… "-91.5… "{lat:… ""      0       ""      <list> 
    ##  6 6EAB2… "htt… Alam… orpi    Primit… "32.07… "-112.… "{lat:… "Alamo… 0       ""      <list> 
    ##  7 AB15E… "htt… Alle… ozar    Campgr… "37.14… "-91.4… "{lat:… ""      0       ""      <list> 
    ##  8 4F9E5… "htt… Alum… biso    Alum F… "36.76… "-84.5… "{lat:… "The c… 0       ""      <list> 
    ##  9 B0B25… ""    Amer… amme    There … ""      ""      ""      ""      0       ""      <list> 
    ## 10 E7CC7… "htt… Anac… chis    Primit… "34.01… "-119.… "{lat:… "This … 0       ""      <list> 
    ## # … with 30 more rows, 19 more variables: geometryPoiId <chr>, reservationInfo <chr>,
    ## #   reservationUrl <chr>, regulationsurl <chr>, regulationsOverview <chr>,
    ## #   amenities <df[,14]>, contacts <df[,2]>, fees <list>, directionsOverview <chr>,
    ## #   directionsUrl <chr>, operatingHours <list>, addresses <list>, images <list>,
    ## #   weatherOverview <chr>, numberOfSitesReservable <chr>,
    ## #   numberOfSitesFirstComeFirstServe <chr>, campsites <df[,8]>, accessibility <df[,13]>,
    ## #   lastIndexedDate <chr>, and abbreviated variable names ¹​parkCode, ²​description, …
…
